Number,Ticket#,Age,Title,Created,Changed,Close Time,Queue,Department,State,Priority,Customer User
16637,2017070101000010,961948,DR. SLOT for Dr. Neelima,7/1/2017 10:14,7/1/2017 13:18,7/1/2017 13:18,1_EYE-Q-Corporate::HMSAssistantManager (Chahat Chhabra),IT & System,closed successful,3 normal,NH1-OperationsHead
16638,2017070101000020,961808,COMPANY PENDING SHOWING IN SEARCH BILLING BUT SAME NOT REFELECTED IN REVENUE SHEET,7/1/2017 10:16,7/4/2017 11:00,7/4/2017 11:00,1_EYE-Q-Corporate::HMSAssistantManager (Chahat Chhabra),IT & System,closed successful,5 very high,Vaishali-CommercialExecutive
16639,2017070101000030,960260,cataract advise data April 2017 to June 2017,7/1/2017 10:42,7/1/2017 11:33,7/1/2017 11:33,1_EYE-Q-Corporate::HMSAssistantManager2 (Kanika Gupta),IT & System,closed successful,5 very high,Aurangabad-OperationsHead
16640,2017070101000040,958751,Need report,7/1/2017 11:07,7/3/2017 18:29,7/3/2017 18:29,1_EYE-Q-Corporate::HMSAssistantManager (Chahat Chhabra),IT & System,closed successful,3 normal,North2-ITExecutive1
16641,2017070101000050,958480,Machine data require,7/1/2017 11:12,7/3/2017 19:08,7/3/2017 19:08,Cluster01::DLF::EYE-Q-Centre::CommercialExecutive,Accounts & Finance ,closed successful,3 normal,North2-BiomedicalEngineerHead
16642,2017070101000060,958411,Machine data require,7/1/2017 11:13,7/3/2017 18:36,7/3/2017 18:36,Cluster01::NRR::EYE-Q-Centre::CommercialExecutive (Sudipta Dasgupta),Accounts & Finance ,closed successful,3 normal,North2-BiomedicalEngineerHead
16643,2017070101000070,958342,Machine data require,7/1/2017 11:14,7/4/2017 11:17,7/4/2017 11:17,Cluster01::Rewari::EYE-Q-Centre::CommercialExecutive (Ajay Kumar),Accounts & Finance ,closed successful,3 normal,North2-BiomedicalEngineerHead
16644,2017070101000080,958285,Machine data require,7/1/2017 11:15,7/3/2017 11:44,7/3/2017 11:44,Cluster02::Karnal::EYE-Q-Centre::OperationsHead (Ashok Kumar),Operations,closed successful,3 normal,North2-BiomedicalEngineerHead
16645,2017070101000090,958248,Machine data require,7/1/2017 11:16,7/1/2017 14:14,7/1/2017 14:14,Cluster02::ShalimarBagh::EYE-Q-Centre::CommercialExecutive (Jasmeet Kaur),Accounts & Finance ,closed successful,3 normal,North2-BiomedicalEngineerHead
16646,2017070101000100,958211,Machine data require,7/1/2017 11:16,7/1/2017 11:16,,Cluster02::Sonepat::EYE-Q-Centre::CommercialExecutive (Sarjeet Singh),Accounts & Finance ,new,3 normal,North2-BiomedicalEngineerHead
16647,2017070101000110,958171,Machine data require,7/1/2017 11:17,7/6/2017 18:51,7/6/2017 18:51,Cluster03::Hisar1::EYE-Q-Centre::CommericalExecutive (Abhishek),Accounts & Finance ,closed successful,3 normal,North2-BiomedicalEngineerHead
16648,2017070101000120,958137,Machine data require,7/1/2017 11:17,7/1/2017 11:53,7/1/2017 11:53,Cluster03::Hisar2::EYE-Q-Centre::CommericalExecutive (Rekha Soni),Accounts & Finance ,closed successful,3 normal,North2-BiomedicalEngineerHead
16649,2017070101000130,958102,Machine data require,7/1/2017 11:18,7/1/2017 15:44,7/1/2017 15:44,Cluster04::Bhiwani::EYE-Q-Centre::CommercialExecutive (Dhirendra Kumar),Accounts & Finance ,closed successful,3 normal,North2-BiomedicalEngineerHead
16650,2017070101000140,957865,Machine data require,7/1/2017 11:22,7/1/2017 11:22,,Max::Vaishali::CommercialExecutive(Payal Khandelwal),Accounts & Finance ,new,3 normal,North2-BiomedicalEngineerHead
16651,2017070101000150,957792,Password Expired,7/1/2017 11:23,7/1/2017 11:27,7/1/2017 11:27,1_EYE-Q-Corporate::HMSAssistantManager2 (Kanika Gupta),IT & System,closed successful,5 very high,Aurangabad-OperationsHead
16652,2017070101000160,957219,machine data,7/1/2017 11:33,7/10/2017 13:03,7/10/2017 13:03,Cluster09::Rander::EYE-Q-Centre::OperationsHead,Operations,closed successful,4 high,Cluster9-BiomedicalEngineer
16653,2017070101000170,957088,New Corporate Creation - Haldwani,7/1/2017 11:35,7/4/2017 15:27,7/4/2017 15:27,1_EYE-Q-Corporate::HMSAssistantManager (Chahat Chhabra),IT & System,closed successful,3 normal,Corp-CreditController
16654,2017070101000180,957038,machine data,7/1/2017 11:36,7/1/2017 12:19,7/1/2017 12:19,Cluster09::Udhna::EYE-Q-Centre::CommercialExecutive,Accounts & Finance ,closed successful,3 normal,Cluster9-BiomedicalEngineer
16655,2017070101000190,956785,machine data,7/1/2017 11:40,7/3/2017 19:28,7/3/2017 19:28,Cluster10::Bharuch::EYE-Q-Centre::OperationsHead,Operations,closed successful,3 normal,Cluster9-BiomedicalEngineer
16660,2017070101000240,952800,Consultation charges for Dr.Vikash,7/1/2017 12:46,7/3/2017 11:38,7/3/2017 11:38,1_EYE-Q-Corporate::OperationsHead (Subhash Bansiwal),Operations,closed successful,5 very high,Yamunanagar-OperationsHead
16662,2017070101000260,952447,Regarding  visiting doctor consultancy in Eye tech,7/1/2017 12:52,7/5/2017 15:55,7/5/2017 15:55,1_EYE-Q-Corporate::HMSAssistantManager (Chahat Chhabra),IT & System,closed successful,4 high,Rewari-OperationsHead
16664,2017070101000280,951373,BANNER PO,7/1/2017 13:10,7/1/2017 13:16,7/1/2017 13:16,1_EYE-Q-Corporate::SupplyChainManager1 (Shrabanbela halder),Supply Chain,closed successful,3 normal,Udhna-CommercialExecutive
16665,2017070101000290,950989,BANNER PO,7/1/2017 13:17,7/6/2017 13:00,7/6/2017 13:00,1_EYE-Q-Corporate::SupplyChainManager1 (Shrabanbela halder),Supply Chain,closed successful,3 normal,Udhna-CommercialExecutive
16666,2017070101000300,949660,PO CREATION,7/1/2017 13:39,7/6/2017 13:01,7/6/2017 13:01,1_EYE-Q-Corporate::SupplyChainManager1 (Shrabanbela halder),Supply Chain,closed successful,3 normal,Rajajipuram-CommercialExecutive
16667,2017070101000310,948963,machine data jun -month,7/1/2017 13:50,7/1/2017 14:47,7/1/2017 14:47,Cluster07::Muzaffarnagar::EYE-Q-Centre::CommercialExecutive (Sanjeev Kumar),Accounts & Finance ,closed successful,5 very high,North1-BiomedicalEngineer
16668,2017070101000320,948772,machine data-jun,7/1/2017 13:54,7/5/2017 16:57,7/5/2017 16:57,Cluster07::Roorkee::EYE-Q-Centre::CommercialExecutive,Accounts & Finance ,closed successful,3 normal,North1-BiomedicalEngineer
16669,2017070101000330,948626,machine data,7/1/2017 13:56,7/1/2017 13:56,,Cluster07::Saharanpur::EYE-Q-Centre::CommercialExecutive,Accounts & Finance ,new,3 normal,North1-BiomedicalEngineer
16670,2017070101000340,947764,WORK ORDER,7/1/2017 14:10,7/6/2017 13:03,7/6/2017 13:03,1_EYE-Q-Corporate::SupplyChainManager1 (Shrabanbela halder),Supply Chain,closed successful,3 normal,Rajajipuram-CommercialExecutive
16671,2017070101000350,947693,WORK ORDER,7/1/2017 14:12,7/6/2017 13:01,7/6/2017 13:01,1_EYE-Q-Corporate::SupplyChainManager1 (Shrabanbela halder),Supply Chain,closed successful,3 normal,Rajajipuram-CommercialExecutive
16672,2017070101000360,945272,Regarding Cataract Advised,7/1/2017 14:52,7/1/2017 15:05,7/1/2017 15:05,1_EYE-Q-Corporate::Corp-HMSManager (Jaspreet Kaur),IT & System,closed successful,4 high,Rajajipuram-OperationsHead
16673,2017070101000370,942390,Vertical Autoclave Problem,7/1/2017 15:40,7/1/2017 15:40,,Cluster11::Nashik::EYE-Q-Centre::OperationsHead,Operations,new,4 high,Cluster11-BiomedicalEngineer
16674,2017070101000380,942241,item not show at time ip issue,7/1/2017 15:42,7/7/2017 15:56,7/7/2017 15:56,1_EYE-Q-Corporate::SupplyChainManager2 (Harish Gole),Supply Chain,closed successful,5 very high,Lagos-CommercialExecutive
16675,2017070101000390,941652,ID not opening,7/1/2017 15:52,7/1/2017 16:12,7/1/2017 16:12,1_EYE-Q-Corporate::HMSAssistantManager (Chahat Chhabra),IT & System,closed successful,5 very high,Vaishali-OperationsHead
16677,2017070101000410,939631,Document required,7/1/2017 16:26,7/3/2017 19:55,7/3/2017 19:55,1_EYE-Q-Corporate::HR2 (Nayanika Roy),Human Resources,closed successful,5 very high,Hisar1-OperationsHead1
16678,2017070101000420,936916,"Generaate EYETECH ID, JYOTI",7/1/2017 17:11,7/3/2017 19:14,7/3/2017 19:13,1_EYE-Q-Corporate::HMSAssistantManager (Chahat Chhabra),IT & System,closed successful,4 high,Gomtinagar-OperationsHead2
16681,2017070101000450,931717,Surgery scheduling issue,7/1/2017 18:38,7/3/2017 12:06,7/3/2017 12:06,1_EYE-Q-Corporate::Corp-HMSManager (Jaspreet Kaur),IT & System,closed successful,5 very high,Hisar1-OperationsHead1
16682,2017070101000460,922519,Email address update on dr. prescription,7/1/2017 21:11,7/4/2017 11:35,7/4/2017 11:35,1_EYE-Q-Corporate::HMSAssistantManager (Chahat Chhabra),IT & System,closed successful,3 normal,Lagos-OperationsHead
16683,2017070101000470,921381,item not show at time ip issue,7/1/2017 21:30,7/7/2017 15:56,7/7/2017 15:56,1_EYE-Q-Corporate::SupplyChainManager2 (Harish Gole),Supply Chain,closed successful,5 very high,Lagos-CommercialExecutive
16685,2017070201000020,863104,Regarding eyetech issue,7/2/2017 13:41,7/3/2017 10:51,,Cluster05::Saraswatipuram::EYE-Q-Centre::OperationsHead (Sumit Arora),Operations,new,3 normal,Saraswatipuram-OperationsHead
16687,2017070301000010,792784,UNABLE TO TEMPLATE CREATION,7/3/2017 9:13,7/3/2017 11:53,7/3/2017 11:32,1_EYE-Q-Corporate::HMSAssistantManager2 (Kanika Gupta),IT & System,closed successful,3 normal,Rohtak-CommercialExecutive
16688,2017070301000020,789461,OPD BILL,7/3/2017 10:09,7/5/2017 16:25,,1_EYE-Q-Corporate::HMSAssistantManager2 (Kanika Gupta),IT & System,merged,5 very high,Aurangabad-OperationsHead
16689,2017070301000030,787571,Consultation charges for Dr.Vikash,7/3/2017 10:40,7/3/2017 11:36,7/3/2017 11:36,1_EYE-Q-Corporate::HMSAssistantManager2 (Kanika Gupta),IT & System,closed successful,5 very high,Yamunanagar-OperationsHead
16691,2017070301000050,783756,For testing,7/3/2017 11:44,7/7/2017 11:29,7/7/2017 11:29,Cluster05::Aliganj::EYE-Q-Centre::Operations Head (Shiv Kumar),Operations,closed successful,3 normal,Cluster5-ITExecutive
16695,2017070301000090,781289,WO FOR SHREEJI ADV,7/3/2017 12:25,7/8/2017 11:37,7/6/2017 13:05,1_EYE-Q-Corporate::SupplyChainManager1 (Shrabanbela halder),Supply Chain,open,3 normal,Baroda2-CommercialExecutive
16707,2017070301000210,767244,PO MANOJ CHAVDA,7/3/2017 16:19,7/8/2017 10:49,7/6/2017 13:05,1_EYE-Q-Corporate::SupplyChainManager1 (Shrabanbela halder),Supply Chain,open,3 normal,Baroda2-CommercialExecutive
16713,2017070301000270,763693,Package updation of RD surgery,7/3/2017 17:18,7/4/2017 11:08,7/4/2017 11:08,1_EYE-Q-Corporate::HMSAssistantManager2 (Kanika Gupta),IT & System,closed successful,5 very high,Sonepat-OperationsHead
16726,2017070301000400,758219,Hiring CTC Approval_Payal Malhotra_PRE Max PPG,7/3/2017 18:49,7/10/2017 11:16,7/10/2017 11:16,1_EYE-Q-Corporate::HRHead (Surabhi Arora),Human Resources,closed successful,3 normal,Cluster1-HR2
16729,2017070401000020,698704,Change of ops mgr ID,7/4/2017 11:21,7/4/2017 12:09,7/4/2017 12:09,1_EYE-Q-Corporate::HMSAssistantManager (Chahat Chhabra),IT & System,closed successful,3 normal,Karnal-OperationsHead
16730,2017070401000030,695351,required approval for package rate updation in eyetech,7/4/2017 12:17,7/4/2017 12:17,7/4/2017 12:17,Cluster11::Nashik::EYE-Q-Centre::OperationsHead,Operations,closed successful,3 normal,Patparganj-OperationsHead
16731,2017070401000040,695312,required approval for package rate updation in eyetech,7/4/2017 12:18,7/4/2017 12:18,7/4/2017 12:18,Cluster11::Nashik::EYE-Q-Centre::OperationsHead,Operations,closed successful,5 very high,
16733,2017070401000060,693310,Regarding Mail id update on Dr. prescription,7/4/2017 12:51,7/5/2017 12:09,7/5/2017 12:09,1_EYE-Q-Corporate::HMSAssistantManager2 (Kanika Gupta),IT & System,closed successful,4 high,Cluster11-CommercialManager
16736,2017070401000090,691366,amount difference,7/4/2017 13:24,7/4/2017 16:06,7/4/2017 16:06,1_EYE-Q-Corporate::HMSAssistantManager (Chahat Chhabra),IT & System,closed successful,3 normal,Bharuch-CommercialExecutive
16737,2017070401000100,690975,regarding error in scheduling the surgery.,7/4/2017 13:30,7/4/2017 15:35,7/4/2017 15:35,1_EYE-Q-Corporate::HMSAssistantManager (Chahat Chhabra),IT & System,closed successful,4 high,Nashik-OperationsHead
16739,2017070401000120,690669,"REQUIRED APPROVAL FOR CHANGING RATES AND UPDATION AS PER MAX CASH , CGHS AND NDMC",7/4/2017 13:35,7/5/2017 12:44,7/5/2017 12:44,Max::Patparganj::OperationsHead(Neha Wadia),Operations,closed successful,3 normal,Patparganj-OperationsHead
16741,2017070401000140,690159,required updates on centre phone,7/4/2017 13:44,7/5/2017 16:17,7/5/2017 16:17,Max::Vaishali::CommercialExecutive(Payal Khandelwal),Accounts & Finance ,closed successful,4 high,Patparganj-OperationsHead
16742,2017070401000150,689958,required updates on deposit of amount,7/4/2017 13:47,7/5/2017 16:14,,Cluster01::NRR::EYE-Q-Centre::OperationsHead2 (Deepti Jaiswal),Operations,new,5 very high,Patparganj-OperationsHead
16748,2017070401000210,687135,anamika CTC PRE approval kanpur 1,7/4/2017 14:34,7/10/2017 11:15,7/10/2017 11:15,1_EYE-Q-Corporate::HRHead (Surabhi Arora),Human Resources,closed successful,3 normal,Cluster5-HR
16751,2017070401000240,685454,required vendor for pronting and stationary,7/4/2017 15:02,7/4/2017 15:02,,Max::Vaishali::CommercialExecutive(Payal Khandelwal),Accounts & Finance ,new,4 high,Patparganj-OperationsHead
16754,2017070401000270,678078,REGARDING TRAINING SERVER,7/4/2017 17:05,7/4/2017 17:15,7/4/2017 17:15,1_EYE-Q-Corporate::HMSAssistantManager (Chahat Chhabra),IT & System,closed successful,5 very high,Corp-SupplyChainManager1
16756,2017070401000290,677070,kindly update package,7/4/2017 17:22,7/5/2017 10:01,7/5/2017 10:01,1_EYE-Q-Corporate::Corp-HMSManager (Jaspreet Kaur),IT & System,closed successful,5 very high,Baroda2-OperationsHead
16757,2017070401000300,673918,Regarding visiting doctor consultancy,7/4/2017 18:14,7/5/2017 9:47,7/5/2017 9:47,1_EYE-Q-Corporate::HMSAssistantManager (Chahat Chhabra),IT & System,closed successful,5 very high,Rewari-OperationsHead
16758,2017070501000010,614606,EYEQ Refund Data Required Apr-17 to June-17,7/5/2017 10:43,7/5/2017 11:21,7/5/2017 11:21,1_EYE-Q-Corporate::HMSAssistantManager (Chahat Chhabra),IT & System,closed successful,5 very high,Corp-Finance&AccountsManager
16759,2017070501000020,613831,Kindly pick call,7/5/2017 10:56,7/6/2017 10:25,7/6/2017 10:25,1_EYE-Q-Corporate::SupplyChainManager2 (Harish Gole),Supply Chain,closed successful,5 very high,Rewari-OperationsHead
16761,2017070501000040,612818,IOL REQUIREMENT,7/5/2017 11:13,7/5/2017 16:19,7/5/2017 16:19,Max::Vaishali::CommercialExecutive(Payal Khandelwal),Accounts & Finance ,closed successful,5 very high,Patparganj-OperationsHead
16762,2017070501000050,611335,Po Other Than COGS_FTB,7/5/2017 11:37,7/6/2017 13:05,7/6/2017 13:05,1_EYE-Q-Corporate::SupplyChainManager1 (Shrabanbela halder),Supply Chain,closed successful,5 very high,Fatehabad-OperationsHead
16763,2017070501000060,611181,PO other than cogs bhuna vc,7/5/2017 11:40,7/6/2017 13:01,7/6/2017 13:01,1_EYE-Q-Corporate::SupplyChainManager1 (Shrabanbela halder),Supply Chain,closed successful,5 very high,Fatehabad-OperationsHead
16766,2017070501000090,610333,Regarding Problem in IP Issue of Phaco Casseettee,7/5/2017 11:54,7/6/2017 13:01,7/6/2017 13:01,1_EYE-Q-Corporate::SupplyChainManager1 (Shrabanbela halder),Supply Chain,closed successful,5 very high,Fatehabad-OperationsHead
16767,2017070501000100,608935,wrong billing_Sec-46,7/5/2017 12:17,7/5/2017 12:25,7/5/2017 12:25,1_EYE-Q-Corporate::Corp-HMSManager (Jaspreet Kaur),IT & System,closed successful,5 very high,DLF-CommercialExecutive
16769,2017070501000120,607288,Package updation of RD surgery for bill,7/5/2017 12:45,7/5/2017 15:52,7/5/2017 15:52,1_EYE-Q-Corporate::HMSAssistantManager2 (Kanika Gupta),IT & System,closed successful,5 very high,Sonepat-OperationsHead
16770,2017070501000130,606653,Regarding rate updation in Eye Tech for BCIT class,7/5/2017 12:56,7/5/2017 15:55,7/5/2017 15:55,1_EYE-Q-Corporate::Corp-HMSManager (Jaspreet Kaur),IT & System,closed successful,3 normal,ShalimarBagh-OperationsHead
16772,2017070501000150,605584,OPD BILL,7/5/2017 13:13,7/7/2017 11:23,,1_EYE-Q-Corporate::HMSAssistantManager2 (Kanika Gupta),IT & System,merged,5 very high,Aurangabad-OperationsHead
16773,2017070501000160,602852,REGARDING OPTICAL FRAME,7/5/2017 13:59,7/5/2017 17:29,7/5/2017 17:29,1_EYE-Q-Corporate::HMSAssistantManager (Chahat Chhabra),IT & System,closed successful,5 very high,Kanpur2-OperationsHead
16777,2017070501000200,599530,MARKETING PO KARNAL,7/5/2017 14:54,7/6/2017 13:02,7/6/2017 13:02,1_EYE-Q-Corporate::SupplyChainManager1 (Shrabanbela halder),Supply Chain,closed successful,5 very high,Yamunanagar-CommercialExecutive
16778,2017070501000210,599070,MARKETING PO KARNAL,7/5/2017 15:02,7/6/2017 13:02,7/6/2017 13:02,1_EYE-Q-Corporate::SupplyChainManager1 (Shrabanbela halder),Supply Chain,closed successful,5 very high,Yamunanagar-CommercialExecutive
16779,2017070501000220,598107,eye tech id for optom Ajay,7/5/2017 15:18,7/5/2017 16:03,7/5/2017 16:03,1_EYE-Q-Corporate::HMSAssistantManager (Chahat Chhabra),IT & System,closed successful,3 normal,Jhajjar-OperationsHead
16781,2017070501000240,593540,Contact Number,7/5/2017 16:34,7/6/2017 10:05,7/6/2017 10:05,1_EYE-Q-Corporate::HMSAssistantManager2 (Kanika Gupta),IT & System,closed successful,5 very high,Aurangabad-OperationsHead
16783,2017070501000260,592228,Hiring CTC Approval of Vijender_PRE_Hisar 1 centre,7/5/2017 16:56,7/10/2017 11:15,7/10/2017 11:15,1_EYE-Q-Corporate::HRHead (Surabhi Arora),Human Resources,closed successful,3 normal,Cluster1-HR2
16784,2017070501000270,588294,Double entry in opd dated on 5 july 2017,7/5/2017 18:02,7/6/2017 10:03,7/6/2017 10:03,1_EYE-Q-Corporate::HMSAssistantManager (Chahat Chhabra),IT & System,closed successful,5 very high,Rander-CommercialExecutive
16785,2017070501000280,588038,Wrong Patient Order Genrated in Eye Tech,7/5/2017 18:06,7/12/2017 13:15,,1_EYE-Q-Corporate::Corp-HMSManager (Jaspreet Kaur),IT & System,open,3 normal,Aliganj-CommercialExecutive
16788,2017070501000310,585754,Master Sheet_05-Jul-17,7/5/2017 18:44,7/5/2017 18:44,,1_EYE-Q-Corporate::HR2 (Nayanika Roy),Human Resources,new,3 normal,Cluster1-HR2
16790,2017070501000330,585518,Update tariff display,7/5/2017 18:48,7/7/2017 11:23,7/7/2017 11:23,Cluster05::Aliganj::EYE-Q-Centre::Operations Head (Shiv Kumar),Operations,closed successful,3 normal,Cluster5-OperationsHead
16793,2017070501000360,585076,Update tariff display,7/5/2017 18:55,7/5/2017 18:55,,Cluster05::Rajajipuram::EYE-Q-Centre::OperationsHead (Nihali Bhavsar),Operations,new,3 normal,Cluster5-OperationsHead
16794,2017070501000370,584929,Update tariff display,7/5/2017 18:58,7/6/2017 11:45,7/6/2017 11:45,Cluster05::Gomtinagar::EYE-Q-Centre::Gomtinagar-OperationsHead2 (Pratyush Pattanaik),Operations,closed successful,3 normal,Cluster5-OperationsHead
16795,2017070501000380,584755,Update tariff display,7/5/2017 19:00,7/6/2017 13:34,7/6/2017 13:34,Cluster06::Kanpur2::EYE-Q-Centre::OperationsHead (Akhil),Operations,closed successful,3 normal,Cluster5-OperationsHead
16797,2017070501000400,584624,Update tariff display,7/5/2017 19:03,7/5/2017 19:03,,Cluster05::VijayNagar::EYE-Q-Centre::OperationsHead,Operations,new,3 normal,Cluster5-OperationsHead
16798,2017070501000410,584512,Update tariff display,7/5/2017 19:05,7/7/2017 17:26,,Cluster06::Kanpur::EYE-Q-Centre::OperationsHead (Riya Gupta),Operations,new,3 normal,Cluster5-OperationsHead
16801,2017070501000440,573513,DOUBLE ENTERY DONE DONE BY PRE,7/5/2017 22:08,7/6/2017 9:55,7/6/2017 9:55,1_EYE-Q-Corporate::HMSAssistantManager (Chahat Chhabra),IT & System,closed successful,3 normal,Saharanpur-CommercialExecutive
16806,2017070601000050,524321,Regarding package update for TPA patient,7/6/2017 11:48,7/6/2017 16:08,7/6/2017 16:08,1_EYE-Q-Corporate::Corp-HMSManager (Jaspreet Kaur),IT & System,closed successful,4 high,Bhiwani-CommercialExecutive
16807,2017070601000060,523185,kindly update package,7/6/2017 12:07,7/6/2017 16:05,7/6/2017 16:05,1_EYE-Q-Corporate::Corp-HMSManager (Jaspreet Kaur),IT & System,closed successful,5 very high,Baroda2-OperationsHead
16808,2017070601000070,522928,WO FOR GOOD MORNING PUBLICITY,7/6/2017 12:11,7/11/2017 12:54,7/6/2017 13:03,1_EYE-Q-Corporate::SupplyChainManager1 (Shrabanbela halder),Supply Chain,open,3 normal,Bardoli-CommercialExecutive
16814,2017070601000130,518689,sx schedule issue,7/6/2017 13:22,7/6/2017 13:46,7/6/2017 13:46,1_EYE-Q-Corporate::HMSAssistantManager (Chahat Chhabra),IT & System,closed successful,5 very high,Jhajjar-OperationsHead
16816,2017070601000150,517248,Reg: Frame not going to delet from OSP..,7/6/2017 13:46,7/6/2017 15:43,7/6/2017 15:39,1_EYE-Q-Corporate::Corp-HMSManager (Jaspreet Kaur),IT & System,closed successful,3 normal,Cluster7-OpticalHead
16817,2017070601000160,516773,Regarding Po Request For Marketing Activity(Siddha),7/6/2017 13:54,7/11/2017 12:47,7/7/2017 15:48,1_EYE-Q-Corporate::SupplyChainManager1 (Shrabanbela halder),Supply Chain,open,3 normal,Jalgaon-CommercialExecutive
16818,2017070601000170,516496,Reg:Frame not update at almora,7/6/2017 13:58,7/6/2017 16:27,7/6/2017 16:27,1_EYE-Q-Corporate::HMSAssistantManager (Chahat Chhabra),IT & System,closed successful,4 high,Cluster7-OpticalHead
16823,2017070601000220,510571,Regarding Package updation,7/6/2017 15:37,7/6/2017 15:45,7/6/2017 15:45,1_EYE-Q-Corporate::HMSAssistantManager (Chahat Chhabra),IT & System,closed successful,4 high,Gomtinagar-OperationsHead2
16825,2017070601000240,509625,PO MANOJ CHAVDA,7/6/2017 15:53,7/11/2017 12:48,7/7/2017 15:48,1_EYE-Q-Corporate::SupplyChainManager1 (Shrabanbela halder),Supply Chain,open,3 normal,Baroda2-CommercialExecutive
16826,2017070601000250,509329,Regarding Package update,7/6/2017 15:58,7/7/2017 11:46,7/7/2017 11:46,1_EYE-Q-Corporate::Corp-HMSManager (Jaspreet Kaur),IT & System,closed successful,3 normal,Rohtak-OperationsHead
16827,2017070601000260,508929,regarding package update,7/6/2017 16:04,7/11/2017 11:45,,Cluster04::Bhiwani::EYE-Q-Centre::OperationsHead (Amardeep),Operations,open,3 normal,Rohtak-OperationsHead
16828,2017070601000270,508226,Approval for cataract package updation,7/6/2017 16:16,7/6/2017 16:16,,Cluster05::Cluster5-OperationsHead (Akhil Jain),Operations,new,3 normal,Gomtinagar-OperationsHead2
16829,2017070601000280,507825,Ramkishor to kanpur 1 on Saturday,7/6/2017 16:23,7/7/2017 11:28,7/7/2017 11:28,Cluster05::Aliganj::EYE-Q-Centre::Operations Head (Shiv Kumar),Operations,closed successful,3 normal,Cluster5-OperationsHead
16830,2017070601000290,507600,Retina OT preparation Audit by Ram Kishor on Saturday,7/6/2017 16:26,7/7/2017 17:57,7/7/2017 17:57,Cluster06::Kanpur::EYE-Q-Centre::OperationsHead (Riya Gupta),Operations,closed successful,3 normal,Cluster5-OperationsHead
16831,2017070601000300,507377,WO ADD ON WHEELS,7/6/2017 16:30,7/11/2017 12:49,7/7/2017 15:48,1_EYE-Q-Corporate::SupplyChainManager1 (Shrabanbela halder),Supply Chain,open,3 normal,Baroda2-CommercialExecutive
16833,2017070601000320,506298,ONGC Package need to update in TCS,7/6/2017 16:48,7/7/2017 12:54,,1_EYE-Q-Corporate::HMSAssistantManager (Chahat Chhabra),IT & System,open,5 very high,Cluster9-OperationsHead
16838,2017070601000370,502247,WORK ORDER -MEERA ADS,7/6/2017 17:56,7/7/2017 15:48,7/7/2017 15:48,1_EYE-Q-Corporate::SupplyChainManager1 (Shrabanbela halder),Supply Chain,closed successful,3 normal,Baroda2-CommercialExecutive
16840,2017070601000390,501870,PO MANOJ CHAVDA,7/6/2017 18:02,7/11/2017 12:57,,1_EYE-Q-Corporate::SupplyChainManager1 (Shrabanbela halder),Supply Chain,open,3 normal,Baroda2-CommercialExecutive
16842,2017070601000410,500179,Double entry in opd dated on 6  july 2017,7/6/2017 18:30,7/7/2017 10:09,7/7/2017 10:09,1_EYE-Q-Corporate::HMSAssistantManager (Chahat Chhabra),IT & System,closed successful,5 very high,Rander-CommercialExecutive
16844,2017070601000430,498352,Package updation - ECHS,7/6/2017 19:01,7/10/2017 9:58,7/10/2017 9:58,1_EYE-Q-Corporate::Corp-HMSManager (Jaspreet Kaur),IT & System,closed successful,5 very high,Hisar1-OperationsHead1
16850,2017070701000010,442538,Regarding error showing while service posting,7/7/2017 10:31,7/12/2017 13:09,7/7/2017 11:22,1_EYE-Q-Corporate::HMSAssistantManager2 (Kanika Gupta),IT & System,open,4 high,Bhiwani-CommercialExecutive
16851,2017070701000020,442464,Lasik Package addition,7/7/2017 10:32,7/10/2017 11:23,,1_EYE-Q-Corporate::Corp-HMSManager (Jaspreet Kaur),IT & System,new,3 normal,Cluster11-OperationsHead
16852,2017070701000030,442080,OPD BILL,7/7/2017 10:38,7/7/2017 10:38,,1_EYE-Q-Corporate::HMSAssistantManager2 (Kanika Gupta),IT & System,new,5 very high,Aurangabad-OperationsHead
16853,2017070701000040,441126,TCS id creation,7/7/2017 10:54,7/7/2017 15:52,7/7/2017 15:52,1_EYE-Q-Corporate::HMSAssistantManager (Chahat Chhabra),IT & System,closed successful,4 high,Cluster5-HR
16854,2017070701000050,438926,double billing done on eye tech,7/7/2017 11:31,7/7/2017 11:40,7/7/2017 11:40,1_EYE-Q-Corporate::HMSAssistantManager2 (Kanika Gupta),IT & System,closed successful,5 very high,Yamunanagar-CommercialExecutive
16856,2017070701000070,438080,glass not prescribed,7/7/2017 11:45,7/7/2017 12:37,7/7/2017 12:37,1_EYE-Q-Corporate::HMSAssistantManager2 (Kanika Gupta),IT & System,closed successful,5 very high,Yamunanagar-OperationsHead
16862,2017070701000130,431537,Double entry in opd dated on 6  july 2017,7/7/2017 13:34,7/7/2017 15:03,7/7/2017 15:03,1_EYE-Q-Corporate::HMSAssistantManager2 (Kanika Gupta),IT & System,closed successful,5 very high,Rander-CommercialExecutive
16869,2017070701000200,427923,Required OT Dress(Phaco OT),7/7/2017 14:34,7/11/2017 12:50,7/7/2017 15:49,1_EYE-Q-Corporate::SupplyChainManager1 (Shrabanbela halder),Supply Chain,open,5 very high,Hisar1-CommericalExecutive
16870,2017070701000210,427547,Required Machine Covers & Prism Bar,7/7/2017 14:41,7/7/2017 14:42,7/7/2017 14:42,1_EYE-Q-Corporate::SupplyChainManager2 (Harish Gole),Supply Chain,closed successful,5 very high,Hisar1-CommericalExecutive
16871,2017070701000220,427463,create  eyetech id,7/7/2017 14:42,7/7/2017 15:38,7/7/2017 15:38,1_EYE-Q-Corporate::HMSAssistantManager2 (Kanika Gupta),IT & System,closed successful,5 very high,Yamunanagar-OperationsHead
16872,2017070701000230,427360,Required Machine Covers & Prism Bar,7/7/2017 14:44,7/7/2017 14:44,,1_EYE-Q-Corporate::SupplyChainManager2 (Harish Gole),Supply Chain,new,5 very high,Hisar1-CommericalExecutive
16875,2017070701000260,423700,Hiring CTC Approval Floor Manager NRR,7/7/2017 15:45,7/10/2017 11:19,7/10/2017 11:19,1_EYE-Q-Corporate::HRHead (Surabhi Arora),Human Resources,closed successful,3 normal,Cluster7-HR1
16878,2017070701000290,420114,Regarding Po Request For Marketing Activity( Ulta),7/7/2017 16:45,7/11/2017 12:51,,1_EYE-Q-Corporate::SupplyChainManager1 (Shrabanbela halder),Supply Chain,open,3 normal,Jalgaon-CommercialExecutive
16880,2017070701000310,415511,Regarding reset New password,7/7/2017 18:01,7/10/2017 10:08,7/10/2017 10:08,1_EYE-Q-Corporate::Corp-HMSManager (Jaspreet Kaur),IT & System,closed successful,3 normal,Jalgaon-CommercialExecutive
16884,2017070701000350,412839,IOL Rate not shown while billing,7/7/2017 18:46,7/10/2017 10:00,7/10/2017 10:00,1_EYE-Q-Corporate::HMSAssistantManager2 (Kanika Gupta),IT & System,closed successful,5 very high,Yamunanagar-CommercialExecutive
16886,2017070701000370,410285,dual entry mr no.4020052708,7/7/2017 19:28,7/12/2017 12:44,7/12/2017 12:44,1_EYE-Q-Corporate::Corp-HMSManager (Jaspreet Kaur),IT & System,closed successful,4 high,Udhna-CommercialExecutive
16891,2017070801000050,349596,Need atamps urgent basis,7/8/2017 12:20,7/8/2017 12:20,,1_EYE-Q-Corporate::SupplyChainManager1 (Shrabanbela halder),Supply Chain,new,3 normal,Vaishali-OperationsHead
16893,2017070801000070,348125,Salary deduction issue,7/8/2017 12:44,7/11/2017 12:50,,Cluster01::Cluster1-HR2 (Khushboo Chandel),Human Resources,new,5 very high,Vaishali-OperationsHead
16895,2017070801000090,347696,Requirement of letter Head for Jhajjar,7/8/2017 12:51,7/10/2017 13:09,7/10/2017 13:09,1_EYE-Q-Corporate::SupplyChainManager1 (Shrabanbela halder),Supply Chain,closed successful,5 very high,Jhajjar-OperationsHead
16902,2017070801000160,346495,Offer letter of Yashoda (Optom) not received,7/8/2017 13:12,7/8/2017 14:44,7/8/2017 14:44,Cluster01::Cluster1-HR1 (Shishir Paliwal),Human Resources,closed successful,5 very high,Vaishali-OperationsHead
16904,2017070801000180,345633,change surgery codes,7/8/2017 13:26,7/10/2017 10:59,,Cluster05::Cluster5-OperationsHead (Akhil Jain),Operations,new,5 very high,Aliganj-OperationsHead
16906,2017070801000200,344088,"Need A scan rolls and AR roll at Vsh,",7/8/2017 13:52,7/8/2017 13:52,,Max::Vaishali::CommercialExecutive(Payal Khandelwal),Accounts & Finance ,new,5 very high,Vaishali-OperationsHead
16907,2017070801000210,344079,IOL expired in tcs,7/8/2017 13:52,7/8/2017 13:52,,1_EYE-Q-Corporate::SupplyChainManager2 (Harish Gole),Supply Chain,new,5 very high,Yamunanagar-CommercialExecutive
16917,2017070801000310,340005,Visit & Mobile Expenses June 2017,7/8/2017 15:00,7/10/2017 14:51,7/10/2017 14:51,Cluster07::Cluster7-OperationsHead (Nitin Rathi),Operations,closed successful,3 normal,Cluster7-ITExecutive
16922,2017070801000360,338702,KINDLY MAKE PO_AONE ADVERTISER_RS.48309/-,7/8/2017 15:21,7/12/2017 11:44,,1_EYE-Q-Corporate::SupplyChainManager1 (Shrabanbela halder),Supply Chain,open,5 very high,Hisar1-CommericalExecutive
16924,2017070801000380,338156,KINDLY MAKE PO_Harish & Harish Surgical RS.2100/-,7/8/2017 15:30,7/11/2017 12:51,,1_EYE-Q-Corporate::SupplyChainManager1 (Shrabanbela halder),Supply Chain,open,5 very high,Hisar1-CommericalExecutive
16925,2017070801000390,337970,UNABLE TO GENERATE BILL,7/8/2017 15:34,7/10/2017 14:55,7/10/2017 14:55,1_EYE-Q-Corporate::HMSAssistantManager2 (Kanika Gupta),IT & System,closed successful,5 very high,Rander-CommercialExecutive
16934,2017070801000480,333880,package update,7/8/2017 16:42,7/10/2017 10:25,7/10/2017 10:25,1_EYE-Q-Corporate::Corp-HMSManager (Jaspreet Kaur),IT & System,closed successful,5 very high,Vaishali-OperationsHead
16939,2017071001000010,184724,grey tip id for sandeep ota,7/10/2017 10:08,7/10/2017 10:41,,1_EYE-Q-Corporate::HR2 (Nayanika Roy),Human Resources,new,5 very high,Jhajjar-OperationsHead
16941,2017071001000030,183588,"Joinee & Resignee List for the month of June, 2017.",7/10/2017 10:27,7/10/2017 10:27,,1_EYE-Q-Corporate::Corp-HMSManager (Jaspreet Kaur),IT & System,new,3 normal,Corp-HR2
16943,2017071001000050,180083,PURCHASE ORDER PRINT,7/10/2017 11:25,7/10/2017 14:59,7/10/2017 14:59,1_EYE-Q-Corporate::Corp-HMSManager (Jaspreet Kaur),IT & System,closed successful,4 high,Cluster7-StoresExecutive2
16944,2017071001000060,179459,Activate 4000 package for 1 billing,7/10/2017 11:35,7/10/2017 11:35,,Cluster05::Cluster5-OperationsHead (Akhil Jain),Operations,new,3 normal,Gomtinagar-OperationsHead2
16945,2017071001000070,179448,ONGC PACKAGE UPDATE,7/10/2017 11:36,7/10/2017 12:53,7/10/2017 12:38,1_EYE-Q-Corporate::HMSAssistantManager (Chahat Chhabra),IT & System,closed successful,5 very high,Rander-OperationsHead
16946,2017071001000080,179274,ONGC PACKAGE NEW UPDATE _TECNIS 1,7/10/2017 11:39,7/10/2017 12:46,7/10/2017 12:46,1_EYE-Q-Corporate::HMSAssistantManager (Chahat Chhabra),IT & System,closed successful,5 very high,Rander-OperationsHead
16947,2017071001000090,179022,WO ADD ON WHEELS,7/10/2017 11:43,7/10/2017 13:03,,1_EYE-Q-Corporate::SupplyChainManager1 (Shrabanbela halder),Supply Chain,open,3 normal,Baroda2-CommercialExecutive
16950,2017071001000120,177552,BANNER PO,7/10/2017 12:07,7/11/2017 12:52,,1_EYE-Q-Corporate::SupplyChainManager1 (Shrabanbela halder),Supply Chain,open,3 normal,Udhna-CommercialExecutive
16951,2017071001000130,177333,PO,7/10/2017 12:11,7/11/2017 12:54,,1_EYE-Q-Corporate::SupplyChainManager1 (Shrabanbela halder),Supply Chain,open,3 normal,Udhna-CommercialExecutive
16952,2017071001000140,177212,SR CITIZEN BANNER PO,7/10/2017 12:13,7/10/2017 12:13,,1_EYE-Q-Corporate::SupplyChainManager1 (Shrabanbela halder),Supply Chain,new,3 normal,Udhna-CommercialExecutive
16953,2017071001000150,177203,Pinacle medicine old bill are not getting printing directly,7/10/2017 12:13,7/10/2017 14:55,7/10/2017 14:55,1_EYE-Q-Corporate::Corp-HMSManager (Jaspreet Kaur),IT & System,closed successful,4 high,Baroda2-OperationsHead
16956,2017071001000180,176043,Regarding OTA in kanpur 2,7/10/2017 12:32,7/10/2017 12:32,,Cluster05::Cluster5-HR (Aparna Kaul),Human Resources,new,5 very high,Kanpur2-OperationsHead
16957,2017071001000190,175391,OPD WEIVER APPROVAL (ONGC),7/10/2017 12:43,7/10/2017 13:09,,1_EYE-Q-Corporate::HMSAssistantManager (Chahat Chhabra),IT & System,new,5 very high,Rander-OperationsHead
16959,2017071001000210,172627,Glass Prescription 1/7/2017 to 8/7/2017,7/10/2017 13:29,7/10/2017 13:38,7/10/2017 13:38,1_EYE-Q-Corporate::HMSAssistantManager2 (Kanika Gupta),IT & System,closed successful,5 very high,Aurangabad-OperationsHead
16960,2017071001000220,172390,Need EMR clinical data report,7/10/2017 13:33,7/10/2017 16:05,7/10/2017 16:04,1_EYE-Q-Corporate::Corp-HMSManager (Jaspreet Kaur),IT & System,closed successful,5 very high,Vaishali-OperationsHead
16961,2017071001000230,172345,ONGC NEW PACKAGE NEW UPDATE _HVF,7/10/2017 13:34,7/10/2017 16:10,7/10/2017 16:10,1_EYE-Q-Corporate::HMSAssistantManager (Chahat Chhabra),IT & System,closed successful,5 very high,Rander-OperationsHead
16962,2017071001000240,172156,Need addition of charges Rs 480/- in BCIT category,7/10/2017 13:37,7/10/2017 16:49,7/10/2017 16:49,1_EYE-Q-Corporate::Corp-HMSManager (Jaspreet Kaur),IT & System,closed successful,5 very high,Vaishali-OperationsHead
16963,2017071001000250,168084,WORK ORDER -MEERA ADS,7/10/2017 14:45,7/11/2017 12:53,,1_EYE-Q-Corporate::SupplyChainManager1 (Shrabanbela halder),Supply Chain,open,3 normal,Baroda2-CommercialExecutive
16966,2017071001000280,167295,Hiring CTC Approval PRE dlf Mrs. Sukhjeet,7/10/2017 14:58,7/11/2017 13:06,7/11/2017 13:06,1_EYE-Q-Corporate::HRHead (Surabhi Arora),Human Resources,closed successful,3 normal,Cluster7-HR1
16969,2017071001000310,165376,rate updation of ip,7/10/2017 15:30,7/12/2017 12:20,,Nigeria::Lagos::CommercialExecutive (Sudeep Katiyar),Accounts & Finance ,open,3 normal,Lagos-CommercialExecutive
16973,2017071001000350,160108,location updation in tcs,7/10/2017 16:58,7/10/2017 17:02,7/10/2017 17:02,1_EYE-Q-Corporate::Corp-HMSManager (Jaspreet Kaur),IT & System,closed successful,3 normal,NH1-OperationsHead
